EESchema Schematic File Version 4
EELAYER 30 0
EELAYER END
$Descr A4 11693 8268
encoding utf-8
Sheet 1 1
Title ""
Date ""
Rev ""
Comp ""
Comment1 ""
Comment2 ""
Comment3 ""
Comment4 ""
$EndDescr
$Comp
L power:GNDREF #PWR?
U 1 1 600524DE
P 6350 4050
F 0 "#PWR?" H 6350 3800 50  0001 C CNN
F 1 "GNDREF" H 6355 3877 50  0000 C CNN
F 2 "" H 6350 4050 50  0001 C CNN
F 3 "" H 6350 4050 50  0001 C CNN
	1    6350 4050
	1    0    0    -1  
$EndComp
Wire Wire Line
	6350 3950 6350 4050
$Comp
L ME218_BaseLib:LED D1
U 1 1 60053587
P 6350 2500
F 0 "D1" V 6297 2579 50  0000 L CNN
F 1 "LTE5208A" V 6388 2579 50  0000 L CNN
F 2 "" H 6350 2500 50  0001 C CNN
F 3 "" H 6350 2500 50  0001 C CNN
	1    6350 2500
	0    -1   -1   0   
$EndComp
$Comp
L ME218_BaseLib:LED D2
U 1 1 60054035
P 6350 2900
F 0 "D2" V 6297 2978 50  0000 L CNN
F 1 "MCDL833URDU12" V 6388 2978 50  0000 L CNN
F 2 "" H 6350 2900 50  0001 C CNN
F 3 "" H 6350 2900 50  0001 C CNN
	1    6350 2900
	0    -1   -1   0   
$EndComp
$Comp
L ME218_BaseLib:Res1 R1
U 1 1 600549D2
P 6350 3300
F 0 "R1" H 6418 3346 50  0000 L CNN
F 1 "200" H 6418 3255 50  0000 L CNN
F 2 "" V 6390 3290 50  0001 C CNN
F 3 "" H 6350 3300 50  0001 C CNN
	1    6350 3300
	1    0    0    -1  
$EndComp
Wire Wire Line
	6350 3550 6350 3450
Wire Wire Line
	6350 2650 6350 2750
Wire Wire Line
	6350 3050 6350 3150
$Comp
L power:+5V #PWR?
U 1 1 60057A07
P 6350 2250
F 0 "#PWR?" H 6350 2100 50  0001 C CNN
F 1 "+5V" H 6365 2423 50  0000 C CNN
F 2 "" H 6350 2250 50  0001 C CNN
F 3 "" H 6350 2250 50  0001 C CNN
	1    6350 2250
	1    0    0    -1  
$EndComp
Wire Wire Line
	6350 2350 6350 2250
$Comp
L ME218_BaseLib:IRLZ34N Q1
U 1 1 600FB2AA
P 6250 3750
F 0 "Q1" H 6456 3796 50  0000 L CNN
F 1 "IRLZ34N" H 6456 3705 50  0000 L CNN
F 2 "Package_TO_SOT_THT:TO-220-3_Vertical" H 6500 3675 50  0001 L CIN
F 3 "" H 6250 3750 50  0001 L CNN
	1    6250 3750
	1    0    0    -1  
$EndComp
$Comp
L ME218_BaseLib:PIC16F1778 U1
U 1 1 6014AF84
P 2750 3150
F 0 "U1" H 2750 4365 50  0000 C CNN
F 1 "PIC16F1778" H 2750 4274 50  0000 C CNN
F 2 "" H 2750 3150 50  0001 C CNN
F 3 "" H 2750 3150 50  0001 C CNN
	1    2750 3150
	1    0    0    -1  
$EndComp
$Comp
L power:+3.3V #PWR?
U 1 1 6014DF00
P 3950 2000
F 0 "#PWR?" H 3950 1850 50  0001 C CNN
F 1 "+3.3V" H 3965 2173 50  0000 C CNN
F 2 "" H 3950 2000 50  0001 C CNN
F 3 "" H 3950 2000 50  0001 C CNN
	1    3950 2000
	1    0    0    -1  
$EndComp
$Comp
L power:GNDREF #PWR?
U 1 1 6014EF2A
P 3950 2850
F 0 "#PWR?" H 3950 2600 50  0001 C CNN
F 1 "GNDREF" H 3955 2677 50  0000 C CNN
F 2 "" H 3950 2850 50  0001 C CNN
F 3 "" H 3950 2850 50  0001 C CNN
	1    3950 2850
	1    0    0    -1  
$EndComp
Wire Wire Line
	3950 2200 3950 2000
Wire Wire Line
	3500 2200 3950 2200
Wire Wire Line
	3950 2650 3950 2850
Wire Wire Line
	3500 2650 3950 2650
$Comp
L ME218_BaseLib:Cap C1
U 1 1 6014FEB5
P 3950 2400
F 0 "C1" H 4065 2446 50  0000 L CNN
F 1 "0.1uF" H 4065 2355 50  0000 L CNN
F 2 "" H 3988 2250 50  0001 C CNN
F 3 "" H 3950 2400 50  0001 C CNN
	1    3950 2400
	1    0    0    -1  
$EndComp
Wire Wire Line
	3950 2250 3950 2200
Connection ~ 3950 2200
Wire Wire Line
	3950 2550 3950 2650
Connection ~ 3950 2650
$Comp
L ME218_BaseLib:Res1 R2
U 1 1 60150A86
P 3950 3750
F 0 "R2" V 3745 3750 50  0000 C CNN
F 1 "10k" V 3836 3750 50  0000 C CNN
F 2 "" V 3990 3740 50  0001 C CNN
F 3 "" H 3950 3750 50  0001 C CNN
	1    3950 3750
	0    1    1    0   
$EndComp
$Comp
L power:+3.3V #PWR?
U 1 1 60151478
P 4350 3550
F 0 "#PWR?" H 4350 3400 50  0001 C CNN
F 1 "+3.3V" H 4365 3723 50  0000 C CNN
F 2 "" H 4350 3550 50  0001 C CNN
F 3 "" H 4350 3550 50  0001 C CNN
	1    4350 3550
	1    0    0    -1  
$EndComp
Wire Wire Line
	3500 3750 3800 3750
Wire Wire Line
	4100 3750 4350 3750
Wire Wire Line
	4350 3750 4350 3550
Wire Wire Line
	2000 2200 1850 2200
Wire Wire Line
	1850 2200 1850 1450
Wire Wire Line
	1850 1450 5550 1450
Wire Wire Line
	5550 1450 5550 3750
Wire Wire Line
	5550 3750 6050 3750
$Comp
L power:GNDREF #PWR?
U 1 1 60155AFC
P 1900 3500
F 0 "#PWR?" H 1900 3250 50  0001 C CNN
F 1 "GNDREF" V 1905 3372 50  0000 R CNN
F 2 "" H 1900 3500 50  0001 C CNN
F 3 "" H 1900 3500 50  0001 C CNN
	1    1900 3500
	0    1    1    0   
$EndComp
$Comp
L power:GNDREF #PWR?
U 1 1 60156117
P 1900 3700
F 0 "#PWR?" H 1900 3450 50  0001 C CNN
F 1 "GNDREF" V 1905 3572 50  0000 R CNN
F 2 "" H 1900 3700 50  0001 C CNN
F 3 "" H 1900 3700 50  0001 C CNN
	1    1900 3700
	0    1    1    0   
$EndComp
$Comp
L power:+3.3V #PWR?
U 1 1 60156A81
P 1900 3600
F 0 "#PWR?" H 1900 3450 50  0001 C CNN
F 1 "+3.3V" V 1915 3728 50  0000 L CNN
F 2 "" H 1900 3600 50  0001 C CNN
F 3 "" H 1900 3600 50  0001 C CNN
	1    1900 3600
	0    -1   -1   0   
$EndComp
Wire Wire Line
	1900 3500 2000 3500
Wire Wire Line
	1900 3600 2000 3600
Wire Wire Line
	1900 3700 2000 3700
$EndSCHEMATC
